Willingness to invest in sanitation facilities. A case study of Bomet County, Kenya
…
[1] 99

[1] 55

data cleaning

converting categorical variables to factors

# A tibble: 99 × 52
      id gender    age_bracket education religion household_size know_sanitation
   <int> <fct>     <fct>       <chr>     <chr>             <dbl> <chr>          
 1     1 male      18-25       primary   christi…              5 yes            
 2     2 male      26-35       secondary christi…              6 no             
 3     3 prefer n… 56 and abo… college   muslim                4 yes            
 4     4 male      46-55       universi… Other                 5 yes            
 5     5 female    26-35       universi… christi…              8 yes            
 6     6 male      36-45       primary   christi…              4 yes            
 7     7 female    18-25       primary   christi…              3 no             
 8     8 male      46-55       universi… Other                 5 yes            
 9     9 male      56 and abo… no educa… christi…              3 yes            
10    10 prefer n… 26-35       college   Other                 2 yes            
# ℹ 89 more rows
# ℹ 45 more variables: public_health_officers <dbl>,
#   community_health_officers <dbl>, media <dbl>, ngo_workers <dbl>,
#   local_markertes <dbl>, others <dbl>, presence_of_latrine <chr>,
#   type_latrine_own <chr>, disease_prevention <dbl>, dignity <dbl>,
#   privacy <dbl>, safety <dbl>, prestige <dbl>, if_no <chr>,
#   benefit_of_use_latrine <chr>, quality_of_toilet <dbl>, …
…
